<?xml version="1.0" encoding="UTF-8" standalone="no"?>
<!-- Created with Inkscape (http://www.inkscape.org/) -->
<svg xmlns:dc="http://purl.org/dc/elements/1.1/" xmlns:cc="http://creativecommons.org/ns#" xmlns:rdf="http://www.w3.org/1999/02/22-rdf-syntax-ns#" xmlns:svg="http://www.w3.org/2000/svg" xmlns="http://www.w3.org/2000/svg" xmlns:xlink="http://www.w3.org/1999/xlink" xmlns:sodipodi="http://sodipodi.sourceforge.net/DTD/sodipodi-0.dtd" xmlns:inkscape="http://www.inkscape.org/namespaces/inkscape" width="166.37231" height="168.47308" id="svg2965" version="1.1" inkscape:version="0.47 r22583" sodipodi:docname="email-blue.svg">
  <defs id="defs2967">
    <inkscape:perspective sodipodi:type="inkscape:persp3d" inkscape:vp_x="0 : 526.18109 : 1" inkscape:vp_y="0 : 1000 : 0" inkscape:vp_z="744.09448 : 526.18109 : 1" inkscape:persp3d-origin="372.04724 : 350.78739 : 1" id="perspective2973"/>
    <inkscape:perspective id="perspective2983" inkscape:persp3d-origin="0.5 : 0.33333333 : 1" inkscape:vp_z="1 : 0.5 : 1" inkscape:vp_y="0 : 1000 : 0" inkscape:vp_x="0 : 0.5 : 1" sodipodi:type="inkscape:persp3d"/>
    <linearGradient inkscape:collect="always" xlink:href="#linearGradient3917" id="linearGradient5325" gradientUnits="userSpaceOnUse" gradientTransform="matrix(0.93571428,0,0,0.97142857,96.553265,671.01127)" x1="381.89471" y1="-310.05496" x2="387.75485" y2="-147.97206"/>
    <linearGradient id="linearGradient3917">
      <stop style="stop-color:#edf4fd;stop-opacity:0.52845526;" offset="0" id="stop3919"/>
      <stop style="stop-color:#175bb3;stop-opacity:0;" offset="1" id="stop3921"/>
    </linearGradient>
    <inkscape:perspective id="perspective3075" inkscape:persp3d-origin="0.5 : 0.33333333 : 1" inkscape:vp_z="1 : 0.5 : 1" inkscape:vp_y="0 : 1000 : 0" inkscape:vp_x="0 : 0.5 : 1" sodipodi:type="inkscape:persp3d"/>
    <linearGradient inkscape:collect="always" xlink:href="#linearGradient3917-2" id="linearGradient5374" gradientUnits="userSpaceOnUse" gradientTransform="matrix(0.93571428,0,0,0.97142857,-395.59376,1094.2791)" x1="381.89471" y1="-310.05496" x2="387.75485" y2="-147.97206"/>
    <linearGradient id="linearGradient3917-2">
      <stop style="stop-color:#edf4fd;stop-opacity:0.52845526;" offset="0" id="stop3919-2"/>
      <stop style="stop-color:#175bb3;stop-opacity:0;" offset="1" id="stop3921-9"/>
    </linearGradient>
    <inkscape:perspective id="perspective3161" inkscape:persp3d-origin="0.5 : 0.33333333 : 1" inkscape:vp_z="1 : 0.5 : 1" inkscape:vp_y="0 : 1000 : 0" inkscape:vp_x="0 : 0.5 : 1" sodipodi:type="inkscape:persp3d"/>
    <linearGradient inkscape:collect="always" xlink:href="#linearGradient3917-8" id="linearGradient5377" gradientUnits="userSpaceOnUse" gradientTransform="matrix(0.93571428,0,0,0.97142857,387.17357,670.22793)" x1="381.89471" y1="-310.05496" x2="387.75485" y2="-147.97206"/>
    <linearGradient id="linearGradient3917-8">
      <stop style="stop-color:#edf4fd;stop-opacity:0.52845526;" offset="0" id="stop3919-1"/>
      <stop style="stop-color:#175bb3;stop-opacity:0;" offset="1" id="stop3921-2"/>
    </linearGradient>
    <inkscape:perspective id="perspective3247" inkscape:persp3d-origin="0.5 : 0.33333333 : 1" inkscape:vp_z="1 : 0.5 : 1" inkscape:vp_y="0 : 1000 : 0" inkscape:vp_x="0 : 0.5 : 1" sodipodi:type="inkscape:persp3d"/>
    <linearGradient id="linearGradient3917-21">
      <stop style="stop-color:#edf4fd;stop-opacity:0.52845526;" offset="0" id="stop3919-7"/>
      <stop style="stop-color:#175bb3;stop-opacity:0;" offset="1" id="stop3921-5"/>
    </linearGradient>
    <inkscape:perspective id="perspective3365" inkscape:persp3d-origin="0.5 : 0.33333333 : 1" inkscape:vp_z="1 : 0.5 : 1" inkscape:vp_y="0 : 1000 : 0" inkscape:vp_x="0 : 0.5 : 1" sodipodi:type="inkscape:persp3d"/>
    <linearGradient inkscape:collect="always" xlink:href="#linearGradient3952" id="linearGradient5480" gradientUnits="userSpaceOnUse" x1="379.92142" y1="-298.53522" x2="387.75485" y2="-148.13335"/>
    <linearGradient inkscape:collect="always" id="linearGradient3952">
      <stop style="stop-color:#0146a8;stop-opacity:1;" offset="0" id="stop3954"/>
      <stop style="stop-color:#0146a8;stop-opacity:0;" offset="1" id="stop3956"/>
    </linearGradient>
    <linearGradient inkscape:collect="always" xlink:href="#linearGradient3917-7" id="linearGradient5482" gradientUnits="userSpaceOnUse" gradientTransform="matrix(0.93571428,0,0,0.97142857,689.98645,669.67217)" x1="381.89471" y1="-310.05496" x2="387.75485" y2="-147.97206"/>
    <linearGradient id="linearGradient3917-7">
      <stop style="stop-color:#edf4fd;stop-opacity:0.52845526;" offset="0" id="stop3919-6"/>
      <stop style="stop-color:#175bb3;stop-opacity:0;" offset="1" id="stop3921-27"/>
    </linearGradient>
    <linearGradient y2="-147.97206" x2="387.75485" y1="-310.05496" x1="381.89471" gradientTransform="matrix(0.93571428,0,0,0.97142857,689.98645,669.67217)" gradientUnits="userSpaceOnUse" id="linearGradient3383" xlink:href="#linearGradient3917-7" inkscape:collect="always"/>
    <inkscape:perspective id="perspective3451" inkscape:persp3d-origin="0.5 : 0.33333333 : 1" inkscape:vp_z="1 : 0.5 : 1" inkscape:vp_y="0 : 1000 : 0" inkscape:vp_x="0 : 0.5 : 1" sodipodi:type="inkscape:persp3d"/>
    <linearGradient inkscape:collect="always" xlink:href="#linearGradient3952-0" id="linearGradient5335" gradientUnits="userSpaceOnUse" x1="379.92142" y1="-298.53522" x2="387.75485" y2="-148.13335"/>
    <linearGradient inkscape:collect="always" id="linearGradient3952-0">
      <stop style="stop-color:#0146a8;stop-opacity:1;" offset="0" id="stop3954-9"/>
      <stop style="stop-color:#0146a8;stop-opacity:0;" offset="1" id="stop3956-9"/>
    </linearGradient>
    <linearGradient inkscape:collect="always" xlink:href="#linearGradient3917-1" id="linearGradient5337" gradientUnits="userSpaceOnUse" gradientTransform="matrix(0.93571428,0,0,0.97142857,91.853206,957.71486)" x1="381.89471" y1="-310.05496" x2="387.75485" y2="-147.97206"/>
    <linearGradient id="linearGradient3917-1">
      <stop style="stop-color:#edf4fd;stop-opacity:0.52845526;" offset="0" id="stop3919-3"/>
      <stop style="stop-color:#175bb3;stop-opacity:0;" offset="1" id="stop3921-4"/>
    </linearGradient>
    <linearGradient y2="-147.97206" x2="387.75485" y1="-310.05496" x1="381.89471" gradientTransform="matrix(0.93571428,0,0,0.97142857,91.853206,957.71486)" gradientUnits="userSpaceOnUse" id="linearGradient3470" xlink:href="#linearGradient3917-1" inkscape:collect="always"/>
  </defs>
  <sodipodi:namedview id="base" pagecolor="#ffffff" bordercolor="#666666" borderopacity="1.0" inkscape:pageopacity="0.0" inkscape:pageshadow="2" inkscape:zoom="1.4" inkscape:cx="54.116953" inkscape:cy="53.990685" inkscape:document-units="px" inkscape:current-layer="layer1" showgrid="false" inkscape:window-width="613" inkscape:window-height="504" inkscape:window-x="51" inkscape:window-y="612" inkscape:window-maximized="0"/>
  <g inkscape:label="Layer 1" inkscape:groupmode="layer" id="layer1" transform="translate(-355.88304,-440.02263)">
    <g id="g5327" transform="matrix(0.75852693,0,0,0.75852693,94.181451,-47.545022)">
      <path transform="matrix(1,0,0,1.0126269,66.926108,964.91792)" d="m 497.42289,-208.45078 c 0,60.56799 -49.10005,109.668042 -109.66804,109.668042 -60.56798,0 -109.66804,-49.100052 -109.66804,-109.668042 0,-60.56798 49.10006,-109.66803 109.66804,-109.66803 60.56799,0 109.66804,49.10005 109.66804,109.66803 z" sodipodi:ry="109.66804" sodipodi:rx="109.66804" sodipodi:cy="-208.45078" sodipodi:cx="387.75485" id="path4155" style="fill:#103683;fill-opacity:1;stroke-width:1.89999998;stroke-miterlimit:4;stroke-dasharray:none" sodipodi:type="arc"/>
      <path sodipodi:type="arc" style="fill:url(#linearGradient5335);fill-opacity:1;stroke-width:1.89999998;stroke-miterlimit:4;stroke-dasharray:none" id="path4157" sodipodi:cx="387.75485" sodipodi:cy="-208.45078" sodipodi:rx="109.66804" sodipodi:ry="109.66804" d="m 497.42289,-208.45078 c 0,60.56799 -49.10005,109.668042 -109.66804,109.668042 -60.56798,0 -109.66804,-49.100052 -109.66804,-109.668042 0,-60.56798 49.10006,-109.66803 109.66804,-109.66803 60.56799,0 109.66804,49.10005 109.66804,109.66803 z" transform="matrix(0.93571428,0,0,0.97142857,91.853206,957.71486)"/>
      <g transform="matrix(0.823236,0,0,0.80495027,-164.20421,365.78957)" id="g4149">
        <path transform="matrix(-0.26963513,-0.71803432,0.57865609,-0.3310744,482.8413,110.52503)" d="m -558.59375,67 a 20.68369,20.68369 0 0 0 -11.5,3.84375 l -140.0625,99.78125 a 20.68369,20.68369 0 0 0 3.40625,35.65625 l 156.4375,71.40625 a 20.68369,20.68369 0 0 0 29.1875,-20.78125 L -537.5,85.71875 A 20.68369,20.68369 0 0 0 -558.59375,67 z" id="path4138" style="fill:#eeeeee;fill-opacity:1;stroke-width:1.89999998;stroke-miterlimit:4" inkscape:original="M -558.09375 87.6875 L -698.15625 187.46875 L -541.71875 258.875 L -558.09375 87.6875 z " inkscape:radius="20.681622" sodipodi:type="inkscape:offset"/>
        <rect ry="19.504995" rx="19.054878" y="441.35452" x="801.15967" height="78.334312" width="20.366922" id="rect4143" style="fill:#eeeeee;fill-opacity:1;stroke-width:1.89999998;stroke-miterlimit:4;stroke-dasharray:none"/>
      </g>
      <path id="path4159" d="m 454.67611,648.6706 c -56.67433,0 -102.625,47.72503 -102.625,106.5625 0,3.7524 0.1979,7.44146 0.5625,11.09375 50.06658,18.72599 126.58171,32.36872 204.6875,-10.59375 7.4e-4,-0.16695 0,-0.33287 0,-0.5 0,-58.83747 -45.95067,-106.5625 -102.625,-106.5625 z" style="fill:url(#linearGradient3470);fill-opacity:1;stroke-width:1.89999998;stroke-miterlimit:4;stroke-dasharray:none"/>
    </g>
  </g>
  <metadata>
    <rdf:RDF>
      <cc:Work>
        <dc:format>image/svg+xml</dc:format>
        <dc:type rdf:resource="http://purl.org/dc/dcmitype/StillImage"/>
        <cc:license rdf:resource="http://creativecommons.org/licenses/publicdomain/"/>
        <dc:publisher>
          <cc:Agent rdf:about="http://openclipart.org/">
            <dc:title>Open Clip Art Library</dc:title>
          </cc:Agent>
        </dc:publisher>
        <dc:title>arrow-blue</dc:title>
        <dc:date>2010-08-04T13:04:34</dc:date>
        <dc:description>Single web 2.0  icons from my set. check the whole set in my clip art if you want get all of it together.</dc:description>
        <dc:source>http://openclipart.org/detail/77329/arrow-blue-by-shokunin</dc:source>
        <dc:creator>
          <cc:Agent>
            <dc:title>shokunin</dc:title>
          </cc:Agent>
        </dc:creator>
        <dc:subject>
          <rdf:Bag>
            <rdf:li>arrow</rdf:li>
            <rdf:li>chat</rdf:li>
            <rdf:li>clip art</rdf:li>
            <rdf:li>clipart</rdf:li>
            <rdf:li>communicator</rdf:li>
            <rdf:li>computer</rdf:li>
            <rdf:li>desktop</rdf:li>
            <rdf:li>earth</rdf:li>
            <rdf:li>email.mail</rdf:li>
            <rdf:li>globe</rdf:li>
            <rdf:li>icon</rdf:li>
            <rdf:li>icons</rdf:li>
            <rdf:li>information</rdf:li>
            <rdf:li>interface</rdf:li>
            <rdf:li>lock</rdf:li>
            <rdf:li>messenger</rdf:li>
            <rdf:li>mobile</rdf:li>
            <rdf:li>network</rdf:li>
            <rdf:li>pc</rdf:li>
            <rdf:li>phone</rdf:li>
            <rdf:li>secure</rdf:li>
            <rdf:li>set</rdf:li>
            <rdf:li>shopping cart</rdf:li>
            <rdf:li>unlock</rdf:li>
            <rdf:li>web 2.0</rdf:li>
            <rdf:li>website</rdf:li>
          </rdf:Bag>
        </dc:subject>
      </cc:Work>
      <cc:License rdf:about="http://creativecommons.org/licenses/publicdomain/">
        <cc:permits rdf:resource="http://creativecommons.org/ns#Reproduction"/>
        <cc:permits rdf:resource="http://creativecommons.org/ns#Distribution"/>
        <cc:permits rdf:resource="http://creativecommons.org/ns#DerivativeWorks"/>
      </cc:License>
    </rdf:RDF>
  </metadata>
</svg>
